{
  "project_info": {
    "project_number": "430900600130",
    "firebase_url": "https://iffood-498d8.firebaseio.com",
    "project_id": "iffood-498d8",
    "storage_bucket": "iffood-498d8.appspot.com"
  },
  "client": [
    {
      "client_info": {
        "mobilesdk_app_id": "1:430900600130:android:3d975d826612c4c0",
        "android_client_info": {
          "package_name": "info.iffood"
        }
      },
      "oauth_client": [
        {
          "client_id": "430900600130-tg57f1sfcgj3534takfbhr2pgc5pqjg3.apps.googleusercontent.com",
          "client_type": 1,
          "android_info": {
            "package_name": "info.iffood",
            "certificate_hash": "b3ec47206676d247735a020b44d1e8946958d551"
          }
        },
        {
          "client_id": "430900600130-nouvvfs7cijgjfpojranjk1q766ft1ad.apps.googleusercontent.com",
          "client_type": 3
        },
        {
          "client_id": "430900600130-nouvvfs7cijgjfpojranjk1q766ft1ad.apps.googleusercontent.com",
          "client_type": 3
        }
      ],
      "api_key": [
        {
          "current_key": "AIzaSyCra0cuhM0ewk_HRCQA1E0Jjb_Qe86H1ZE"
        }
      ],
      "services": {
        "analytics_service": {
          "status": 1
        },
        "appinvite_service": {
          "status": 2,
          "other_platform_oauth_client": [
            {
              "client_id": "430900600130-nouvvfs7cijgjfpojranjk1q766ft1ad.apps.googleusercontent.com",
              "client_type": 3
            }
          ]
        },
        "ads_service": {
          "status": 2
        }
      }
    }
  ],
  "configuration_version": "1"
}